Deposit Date,Batch ID,Batch Number,Payment Type,Payment Source,Transaction,Payment Amount,R/T,Account Number,Check/Trace/Ref Number,DDA,Payer,
09/08/2016,99875,99875,ACH,ACH,1,"$70,782.53",,,113063335254996,11236543333,,
09/08/2016,99876,99876,ACH,ACH,1,"$139.96",,,071399333528331,11236543333,,
09/08/2016,99876,99876,ACH,ACH,2,"$215.74",,,071299333543740,11236543333,,
09/08/2016,99879,99879,ACH,ACH,1,"$125.20",,,022003336015019,123456655,AES,
09/08/2016,99880,99880,ACH,ACH,1,"$1,333.61",,,072003336010367,123456655,AUTOMOTIVE CREDI,
09/08/2016,99881,99881,ACH,ACH,1,"$12,742.79",,,072003336010349,123456655,AUTOMOTIVE CREDI,
09/08/2016,99882,99882,ACH,ACH,1,"$5.97",,,072003336010371,123456655,AUTOMOTIVECREDIT,
09/08/2016,99883,99883,ACH,ACH,1,"$786,655.68",,,021003336015494,123456655,AVNET,
09/08/2016,99884,99884,ACH,ACH,1,"$240.05",,,072003336010369,123456655,EASY LOAN PAY,
09/08/2016,99884,99884,ACH,ACH,2,"$47.60",,,072003336010378,123456655,EASY LOAN PAY,
09/08/2016,99885,99885,ACH,ACH,1,"$8,858.06",,,043013336977456,123456655,MONEYGRAM P SYS,
09/08/2016,99885,99885,ACH,ACH,2,"$379.56",,,043013336977457,123456655,MONEYGRAM P SYS,
09/08/2016,99885,99885,ACH,ACH,3,"$1,964.10",,,043013336977458,123456655,MONEYGRAM P SYS,
09/08/2016,99886,99886,ACH,ACH,1,"$2,247.54",,,072003336017705,123456655,RETURN SETTLE,
09/08/2016,99886,99886,ACH,ACH,2,"$35.72",,,072003336017709,123456655,RETURN SETTLE,
09/08/2016,99886,99886,ACH,ACH,3,"$1,055.00",,,072003336017110,123456655,RETURN SETTLE,
09/08/2016,99887,99887,ACH,ACH,1,"$3,599.53",,,072003336017707,123456655,SERVICING SOLUTI,
09/08/2016,99888,99888,ACH,ACH,1,"$1,050.00",,,072003336017374,123456655,SERVICING SOLUTI,
09/08/2016,99888,99888,ACH,ACH,2,"$1,050.00",,,072003336017375,123456655,SERVICING SOLUTI,
09/08/2016,99899,99899,ACH,ACH,1,"$125.20",,,022003336015019,123456655,AES,
09/08/2016,99900,99900,ACH,ACH,1,"$1,333.61",,,072003336010367,123456655,AUTOMOTIVE CREDI,
09/08/2016,99901,99901,ACH,ACH,1,"$12,742.79",,,072003336010349,123456655,AUTOMOTIVE CREDI,
09/08/2016,99902,99902,ACH,ACH,1,"$5.97",,,072003336010371,123456655,AUTOMOTIVECREDIT,
09/08/2016,99903,99903,ACH,ACH,1,"$786,655.68",,,021003336015494,123456655,SAILU,
09/08/2016,99904,99904,ACH,ACH,1,"$240.05",,,072003336010369,123456655,WFS SK DELUXE,
09/08/2016,99904,99904,ACH,ACH,2,"$47.60",,,072003336010378,123456655,WFS SK DELUXE,
09/08/2016,99905,99905,ACH,ACH,1,"$8,858.06",,,043013336977456,123456655,MONEYGRAM P SYS,
09/08/2016,99905,99905,ACH,ACH,2,"$379.56",,,043013336977457,123456655,MONEYGRAM P SYS,
09/08/2016,99905,99905,ACH,ACH,3,"$1,964.10",,,043013336977458,123456655,MONEYGRAM P SYS,
09/08/2016,99906,99906,ACH,ACH,1,"$2,247.54",,,072003336017705,123456655,RETURN SETTLE,
09/08/2016,99906,99906,ACH,ACH,2,"$35.72",,,072003336017709,123456655,RETURN SETTLE,
09/08/2016,99906,99906,ACH,ACH,3,"$1,055.00",,,072003336017110,123456655,RETURN SETTLE,
09/08/2016,99907,99907,ACH,ACH,1,"$3,599.53",,,072003336017707,123456655,SERVICING SOLUTI,
09/08/2016,99908,99908,ACH,ACH,1,"$1,050.00",,,072003336017374,123456655,SERVICING SOLUTI,
09/08/2016,99908,99908,ACH,ACH,2,"$1,050.00",,,072003336017375,123456655,SERVICING SOLUTI,
09/08/2016,99919,99919,ACH,ACH,1,"$125.20",,,022003338015019,123456655,AES,
09/08/2016,99920,99920,ACH,ACH,1,"$1,333.81",,,072003338010367,123456655,AUTOMOTIVE CREDI,
09/08/2016,99921,99921,ACH,ACH,1,"$12,742.79",,,072003338010349,123456655,AUTOMOTIVE CREDI,
09/08/2016,99922,99922,ACH,ACH,1,"$5.97",,,072003338010371,123456655,AUTOMOTIVECREDIT,
09/08/2016,99923,99923,ACH,ACH,1,"$786,655.68",,,021003338015494,123456655,AVNET,
09/08/2016,99924,99924,ACH,ACH,1,"$240.05",,,072003338010369,123456655,EASY LOAN PAY,
09/08/2016,99924,99924,ACH,ACH,2,"$47.60",,,072003338010378,123456655,EASY LOAN PAY,
09/08/2016,99925,99925,ACH,ACH,1,"$8,858.06",,,043013338977456,123456655,MONEYGRAM P SYS,
09/08/2016,99925,99925,ACH,ACH,2,"$379.56",,,043013338977457,123456655,MONEYGRAM P SYS,
09/08/2016,99925,99925,ACH,ACH,3,"$1,964.10",,,043013338977458,123456655,MONEYGRAM P SYS,
09/08/2016,99926,99926,ACH,ACH,1,"$2,247.54",,,072003338017705,123456655,RETURN SETTLE,
09/08/2016,99926,99926,ACH,ACH,2,"$35.72",,,072003338017709,123456655,RETURN SETTLE,
09/08/2016,99926,99926,ACH,ACH,3,"$1,055.00",,,072003338017110,123456655,RETURN SETTLE,
09/08/2016,99927,99927,ACH,ACH,1,"$3,599.53",,,072003338017707,123456655,SERVICING SOLUTI,
09/08/2016,99928,99928,ACH,ACH,1,"$1,050.00",,,072003338017374,123456655,SERVICING SOLUTI,
09/08/2016,99928,99928,ACH,ACH,2,"$1,050.00",,,072003338017375,123456655,SERVICING SOLUTI,
09/08/2016,99939,99939,ACH,ACH,1,"$125.20",,,022003338015019,123456655,AES,
09/08/2016,99940,99940,ACH,ACH,1,"$1,333.81",,,072003338010367,123456655,AUTOSSAILUCREDIT,
09/08/2016,99941,99941,ACH,ACH,1,"$12,742.79",,,072003338010349,123456655,AUTOSSAILUCREDIT,
09/08/2016,99942,99942,ACH,ACH,1,"$5.97",,,072003338010371,123456655,AUTOSSAILUCREDIT,
09/08/2016,99943,99943,ACH,ACH,1,"$786,655.68",,,021003338015494,123456655,AVNET,
09/08/2016,99944,99944,ACH,ACH,1,"$240.05",,,072003338010369,123456655,SAIL AUTO PAY,
09/08/2016,99944,99944,ACH,ACH,2,"$47.60",,,072003338010378,123456655,SAIL AUTO PAY,
09/08/2016,99945,99945,ACH,ACH,1,"$8,858.06",,,043013338977456,123456655,SAILAJASK P SYS,
09/08/2016,99945,99945,ACH,ACH,2,"$379.56",,,043013338977457,123456655,SAILAJASK P SYS,
09/08/2016,99945,99945,ACH,ACH,3,"$1,964.10",,,043013338977458,123456655,SAILAJASK P SYS,
09/08/2016,99946,99946,ACH,ACH,1,"$2,247.54",,,072003338017705,123456655,SSAILU SETTLE,
09/08/2016,99946,99946,ACH,ACH,2,"$35.72",,,072003338017709,123456655,SSAILU SETTLE,
09/08/2016,99946,99946,ACH,ACH,3,"$1,055.00",,,072003338017110,123456655,SSAILU SETTLE,
09/08/2016,99947,99947,ACH,ACH,1,"$3,599.53",,,072003338017707,123456655,SKSAILAJA WAUSAU,
09/08/2016,99948,99948,ACH,ACH,1,"$1,050.00",,,072003338017374,123456655,SKSAILAJA WAUSAU,
09/08/2016,99948,99948,ACH,ACH,2,"$1,050.00",,,072003338017375,123456655,SKSAILAJA WAUSAU,
09/08/2016,100294,100294,ACH,ACH,1,"$125.20",,,022003338015019,123456655,AES,
09/08/2016,100295,100295,ACH,ACH,1,"$1,333.81",,,072003338010367,123456655,AUTOSSAILUCREDIT,
09/08/2016,100296,100296,ACH,ACH,1,"$12,742.79",,,072003338010349,123456655,AUTOSSAILUCREDIT,
09/08/2016,100297,100297,ACH,ACH,1,"$5.97",,,072003338010371,123456655,AUTOSSAILUCREDIT,
09/08/2016,100298,100298,ACH,ACH,1,"$786,655.68",,,021003338015494,123456655,AVNET,
09/08/2016,100299,100299,ACH,ACH,1,"$240.05",,,072003338010369,123456655,SAIL AUTO PAY,
09/08/2016,100299,100299,ACH,ACH,2,"$47.60",,,072003338010378,123456655,SAIL AUTO PAY,
09/08/2016,100300,100300,ACH,ACH,1,"$8,858.06",,,043013338977456,123456655,SAILAJASK P SYS,
09/08/2016,100300,100300,ACH,ACH,2,"$379.56",,,043013338977457,123456655,SAILAJASK P SYS,
09/08/2016,100300,100300,ACH,ACH,3,"$1,964.10",,,043013338977458,123456655,SAILAJASK P SYS,
09/08/2016,100301,100301,ACH,ACH,1,"$2,247.54",,,072003338017705,123456655,SSAILU SETTLE,
09/08/2016,100301,100301,ACH,ACH,2,"$35.72",,,072003338017709,123456655,SSAILU SETTLE,
09/08/2016,100301,100301,ACH,ACH,3,"$1,055.00",,,072003338017110,123456655,SSAILU SETTLE,
09/08/2016,100302,100302,ACH,ACH,1,"$3,599.53",,,072003338017707,123456655,SKSAILAJA WAUSAU,
09/08/2016,100303,100303,ACH,ACH,1,"$1,050.00",,,072003338017374,123456655,SKSAILAJA WAUSAU,
09/08/2016,100303,100303,ACH,ACH,2,"$1,050.00",,,072003338017375,123456655,SKSAILAJA WAUSAU,