>>>>Self Configuring Tagged DIP <<<<
BEGIN:
>>DocTypeName:Per/Bus Check
>>DocDate:09/19/2018
Client ID:7890002
Batch Date:09/19/2018
Deposit Date:09/19/2018
System Date:09/19/2018
Process Date:09/19/2018
Applied Amount: 94.56
Endpoint DDA:{DDA}
Transaction Number:1
Sequence Number:1
Batch ID: 90019
Batch Number: 90019
Site ID:1
BEGIN:
>>DocTypeName:WFS Remit Stub
>>DocDate:09/19/2018
Client ID:7890002
Batch Date:09/19/2018
Deposit Date:09/19/2018
System Date:09/19/2018
Process Date:09/19/2018
Endpoint DDA:{DDA}
ExtraField:Nothing
Transaction Number:1
Sequence Number:2
Batch ID: 90019
Batch Number: 90019
Site ID:1
END: