key|value
BaseURL|https://R36016QaWeb01.qalabs.nwk/Framework/
ClientBaseURL|http://R36016QAAUTO01
ClientLogFolder|\\R36016QAAUTO01.qalabs.nwk\d$\WFSApps\RecHub\Data\Logfiles
ClientDriveUNC|\\R36016QAAUTO01.qalabs.nwk\d$
EDMDefinitionFolder|D:\WFSApps\RecHub\ExtractDesignManager\ExtractDefinitions
FileImportAttachmentFolder|D:\WFSApps\RecHub\Data\Attachments
DBConnection|jdbc:sqlserver://R36016QaDb01.qalabs.nwk;user=AutomationBot;password=Wausau#1;databaseName=WFSDB_R360
RAAMDBConnection|jdbc:sqlserver://R36016QaDb01.qalabs.nwk;user=AutomationBot;password=Wausau#1;databaseName=RAAM
FrameworkDBConnection|jdbc:sqlserver://R36016QaDb01.qalabs.nwk;user=AutomationBot;password=Wausau#1;databaseName=WFSPortal
SSOClientURL|https://r36016qaweb01.qalabs.nwk/SSOTestClient
IntegraPayDBConnection|jdbc:sqlserver://R360IpayDb01.qalabs.nwk;user=sa;password=Wausau#1;databaseName=CDS_ItemProcessing