fname,lname,addr1,addr2,city,state,zip,phone,Location Type
ROBERT,MORRIS,14123 STILTON ST,,TAMPA,FL,33626,,1
NATASHA,TENSLEY,2710 E 98TH AVE,,TAMPA,FL,33612,,1
CORINNE,SCHOMBURG,17318 SWEETWATER RD,,DADE CITY,FL,33523,,1
STEPHEN,MARTENS,3711 WYNTERHALL WAY,APT 506,GREENSBORO,NC,27405,,1
DANIELLE,GUERRERO,5315 SATINSTONE DR,,HEMET,CA,92545,9516549376,1
DEBRA,LINDHOLM,227 OXFORD RD,,FRANKLIN,OH,45005,,1
MARILYN,GEORGE,3438 PETE SEAY RD,,SULPHUR,LA,70665,,1
DELBERT,RIOUS,2308 CLINE ST,,LAKE CHARLES,LA,70601,,1
CHOONGEK,WADDELL,2716 MILL CREEK RD,,MENTONE,CA,92359,,1
ANN,SMITH,15 VASSAR ST,,WORCESTER,MA,1602,,1
KEVIN,KEOGH,14 COTTAGE ST,APT 1,LEOMINSTER,MA,1453,9785378512,1
ANTHONY,DISALVO,18358 GLEN CAIRN WAY,,STRONGSVILLE,OH,44149,,1
PEDRO,FERNANDEZ,7521 N MIAMI AVE,,MIAMI,FL,33150,,1
THELMA,GROOM,9814 STATE ROUTE 22,,MIDDLE GRANVILLE,NY,12849,,1
ELIZABETH,CZIKA,1503 HAMPTON RD,,ROCKY RIVER,OH,44116,,1
JENNIFER,MOONEY,RR 2 BOX 24,,CLINTWOOD,VA,24228,,1
WILLIAM,SPRING,10022 SALI DR,,ORLANDO,FL,32817,,1
RICK,KESSLER,2015 QUAILWOOD DR,,CLARKSTON,WA,99403,,1
M,POFF,414 N 4TH ST,,CHENEY,WA,99004,,1
WILLENE,BRONAUGH,2008 HIGH ST,,HOPKINSVILLE,KY,42240,,1
TERRY,SEXTON,811 CHERRYWOOD LN,,GRAYSON,KY,41143,,1
BRIAN,HUCKSTEP,7479 POND RD,,HARTFORD,WI,53027,,1
JILL,MASSEY,8 BILLS PL,# 2,BROOKLYN,NY,11218,,1
DOYLE,COLEMAN,38316 MULBERRY ST,,GONZALES,LA,70737,,1
JORGE,GALAS,1012 APOLLO CIR,,ROUND ROCK,TX,78664,,1
KATHRYN,CLAYTON,18137 BRIDLE CLUB DR,,TAMPA,FL,33647,,1
KELLY,SLACK,24 FORGHAM RD,,ROCHESTER,NY,14616,,1
JOHN,BLOM,3911 LITTLE CREEK DR,,AMELIA,OH,45102,,1
PHILLIP,KREINER,6264 AIRY CT,,WEST CHESTER,OH,45069,,1
LUIS,VILLANUEVA,15660 NAVAJA CIR,,MORENO VALLEY,CA,92551,,1
CATHY,EXLEY,1205 1ST AVE,,CORAOPOLIS,PA,15108,4123297679,1
THOMAS,OKEEFE,1050 ROSALIA AVE,,HEMET,CA,92543,,1
DEMETRIUS,BRAY,515 5TH ST S,,VIRGINIA,MN,55792,,1
DONNA,COBLE,805 CRESTMONT DR SE,,CONCORD,NC,28025,,1
PEGGY,PERRY,12377 OAK BROOK DR,,GEISMAR,LA,70734,,1
ISAAC,ROSSELOT,5825 BOLIVAR ST,,RIVERSIDE,CA,92505,9516871979,1
HAROLD,WIES,6880 BUNKERHILL SOUTH RD,,BUTLER,OH,44822,,a
GARY,CHATMON,145 WILKES AVE,,BUFFALO,NY,14215,,a
KATHLEEN,BERG,201 NORWOOD DR,,BIG LAKE,MN,55309,,a
BONNIE,DELMONICO,2764 CANDACE CT,,UNIONTOWN,OH,44685,,a
JUAN,HARKNESS,13910 SWALLOWTAIL LN,,VICTORVILLE,CA,92394,7603818839,a
SALLY,ZAFRON,43 AMERICA ST,,FRAMINGHAM,MA,1702,,a
MATTHEW,ASHE,403 UNION AVE,,FRAMINGHAM,MA,1702,5083097204,a
ANDREW,PHIFIELD,136 WINTHROP LN,,HOLDEN,MA,1520,,a
CAROL,GRAHAM,11187 MYERS RD,,WEST SALEM,OH,44287,,a
MARY,WILLIAMS,1455 S CALLE DE MARIA,,PALM SPRINGS,CA,92264,7603273026,a
JAMES,MILLER,PO BOX 147,,KISTLER,WV,25628,3045839726,a
BENJAMIN,DUBOIS,3736 RECTOR RD,,LOWVILLE,NY,13367,,a
LISA,TUOMALA,474 W ACOMA DR,,LITTLETON,CO,80120,,a
MICHAEL,YATES,20 CHRISTOPHER DR,,HURRICANE,WV,25526,,a
ROBERT,AHONEN,120 205TH LN NW,,CEDAR,MN,55011,,a
JUSTIN,MEEKS,118 PREVOST DR,APT 1,HOUMA,LA,70364,,a
CYNTHIA,JONES,9051 HALL AVE,,CANASTOTA,NY,13032,,a
JEAN,BOLAND,3521 INDIAN OPENING RD,,CANASTOTA,NY,13032,,a
DESIRENO,GAUSE,2154 NW 105TH TER,,MIAMI,FL,33147,3056931955,a
CIERRA,MCCOY,180 KOHL ST,,BROOMFIELD,CO,80020,,a
ROSA,PRADO,6313 CLYDE AVE,,SAN DIEGO,CA,92139,,a
JERRY,KLEINSCHMIDT,121 ANETA AVE W,,ALMENA,WI,54805,,a
HUA,LIAO,11431 AVENIDA DEL GATO,,SAN DIEGO,CA,92126,,a
BREAUX,CLAUDE,1 MARY RIDGE LN,,NEW ORLEANS,LA,70123,,a
WILLIAM,THOMAS,142 CHIGGERSVILLE CIR,,CASTLEWOOD,VA,24224,,a
MICHELE,JUST,9943 W 66TH AVE,,ARVADA,CO,80004,,a
CHARLES,HAYNES,7196 TIMBERLANE DR,,FAIRLAWN,VA,24141,,a
SANDRA,WOODARD,PO BOX 25,,PITTSVILLE,VA,24139,,a
JENNIFER,SANCHEZ-MALDONA,B10 CALLE 4,,CAROLINA,PR,985,,a
JORGE,GONZALEZ,2811 GOLD AVE,,EL PASO,TX,79930,,a
RICK,PUFALL,609 16TH ST,,MOSINEE,WI,54455,,a
SUSAN,VAUGHAN,1392 LINDALE LN,,GREEN BAY,WI,54313,,a
PAUL,CONAWAY,10704 LEVELLAND PL,,EL PASO,TX,79924,9158229882,a
QUENTIN,ROBERTS,3276 PETERSON RD,,GREEN BAY,WI,54311,,a
JOSEPH,BUCCI,203 MORICHES MIDDLE ISLAND RD,,SHIRLEY,NY,11967,,a
MARY,DOMINGUEZ,8763 CATHEDRAL CIR,,EL PASO,TX,79907,9158593145,a
NATALIE,SOTO,14530 DADE PINE AVE,,HIALEAH,FL,33014,,a
ISAIAS,HERNANDEZ,PO BOX 3001,,FABENS,TX,79838,,a
SUSAN,LOCKWOOD,1335 140TH AVE,,NEW RICHMOND,WI,54017,,a
SAMUEL,GREEN,8609 CALLEJA RISA,,EL CAJON,CA,92021,,a
TORY,SEWELL,310 S AMSTERDAM CT,,VIRGINIA BEACH,VA,23454,,a
KENNETH,NEWMAN,1330 PROUD CLARION RUN,,VIRGINIA BEACH,VA,23454,7574251418,a
TONYA,STOCKWELL,2961 AIR VISTA DR,,COLUMBUS,NE,68601,4025647190,a
GABRIAL,FETTERS,514 KIT BLVD,,NORTH POLE,AK,99705,,a
HARRIET,NEIL,5600 CARTWRIGHT LN,,COLUMBUS,OH,43231,,a
DOMINIC,KUNNUK,PO BOX 468,,WILLOW,AK,99688,,a
TERESA,ROE,6100 S 43RD ST,,LINCOLN,NE,68516,,a
SHERI,CHRISTEN,7841 BARRINGTON PL,,LINCOLN,NE,68516,,a
SONYA,PETERS,3881 FERGUS RD,,COLUMBUS,OH,43207,6142954881,a
FRANCISCO,PADRO-CRUZ,HC 1 BOX 7711,,LUQUILLO,PR,773,,a
SUZANNE,CHRISTOPHER,224 FRESHWATER CREEK RD,,MINERAL,VA,23117,,a
JENNIFER,PERREAULT,561 SABAL LAKE DR,APT 103,LONGWOOD,FL,32779,,a
JOHN,KLINKER,30 MUIRFIELD GREEN LN,,MIDLOTHIAN,VA,23112,,a
JAMES,HAYNES,4611 TRADEWIND ST,,AMARILLO,TX,79118,,a
TIMOTHY,OBRIEN,10215 W YORK CT,,MILWAUKEE,WI,53222,4144613997,a
KAREN,LEVINE,114 OLD COUNTRY RD,STE 248,MINEOLA,NY,11501,,a
JEROME,GOLLA,N5415 BUENA VISTA DR,,FOND DU LAC,WI,54935,,a
KARA,MATSCHE,N9655 GINA DR,,APPLETON,WI,54915,,a
TARCILA,TAPNIO,5845 VISTA SAN FRANCISQUITO,,SAN DIEGO,CA,92154,,a
YINAIRA,PRIETO-OLMO,2750 NW 170TH ST,,MIAMI GARDENS,FL,33056,,a
JAMES,CHORAK,4311 SHORE DR,,LORAIN,OH,44053,,a
EDDIE,SEATON,618 27TH ST,,KENNER,LA,70062,5044673209,a
ESTHER,MERCADO-VAZQUEZ,PO BOX 40117,,SAN JUAN,PR,940,,a
HELEN,ARMSTRONG,114 CROMWELL PKWY,APT A320,NORFOLK,VA,23505,7575839638,a
REGORIA,OLMEDO,1302 REDFERN AVE,APT 6E,FAR ROCKAWAY,NY,11691,,a
MOGENS,BAYE,11211 PIERCE PLZ,,OMAHA,NE,68144,,a
RESMI,KARTHAKOMATTIL,7761 TREE LAKE BLVD,,POWELL,OH,43065,7409175634,a
WIDA,GONZALEZ-CARMON,1826 BO DUQUE,,NAGUABO,PR,718,,a
GENE,NELSON,8561 SHARON GROVE RD,,LEWISBURG,KY,42256,2702774040,a
MILUVIDIA,HUEZO DEREY,6854 RADCLIFFE DR,,ALEXANDRIA,VA,22307,,a
MARIE,GARA,3529 101ST ST,# 1,CORONA,NY,11368,3478087297,a
RENATO,BESA,4244 156TH ST,,FLUSHING,NY,11355,,a
ROXANNE,ROBERTSON,PO BOX 1233,,NAPAVINE,WA,98565,,a
ZHIYONG,LIANG,3207 SHAMROCK ST E,APT 5,TALLAHASSEE,FL,32309,,a
LEE,PAULY,W349N5221 LACYS LN,,OKAUCHEE,WI,53069,,a
EMILY,HOECHST,1338 POTOMAC SCHOOL RD,,MC LEAN,VA,22101,,a
NETA,BLACK,5347 SCATTERED OAKS CT,,JACKSONVILLE,FL,32258,,a
KERRY,BROLL,6824 19TH ST W,,UNIVERSITY PLACE,WA,98466,2535654900,a
CYNTHIA,HENRY,PO BOX 345,,WELLINGTON,CO,80549,9705687689,a
DONNA,JACKOLA,10117 HAMPTON RD,,ROUGEMONT,NC,27572,,a
THOMAS,LIND,5912 HILLSBORO CIR N,,MINNEAPOLIS,MN,55428,,a
RAPHEAL,CLARKE,PO BOX 21,,WATERPORT,NY,14571,,a
GUY,LINDAHL,12671 8TH AVE S,,ZIMMERMAN,MN,55398,,a
JAMIL,POWERS THOMAS,7135 PINEMILL DR,,WEST CHESTER,OH,45069,,a
ERICKA,LONGLEY,1100 RITTERS LAKE RD,,GREENSBORO,NC,27406,,a
VERNON,ROSE,333 MELANIE DR,,FRANKLIN,OH,45005,9377460809,a
JUDY,MITCHELL,3359 PLEASANT VALLEY RD,,LUCAS,OH,44843,,a
SCOTT,HOPPER,9701 E ILIFF AVE,APT 2217,DENVER,CO,80231,3034818419,a
TERIANN,RIZZO,660 BELLE GROVE LN,,ROYAL PALM BEACH,FL,33411,,a
JAMES,LYNCH,1641 VILLAGE PL,,WINSTON SALEM,NC,27127,,a
ANTHONY,GALLOW,608 N SOILEAU ST,,VILLE PLATTE,LA,70586,,a
EMILY,BRANCH,PO BOX 320,,ADVANCE,NC,27006,,a
DANIEL,STRICKLAND,10775 CHOICEANA AVE,,HESPERIA,CA,92345,,a
ALISON,REAP,13 PARK TERRACE PL,,BINGHAMTON,NY,13903,6072387954,a
DIANE,ROEDER,5544 FENWAY CT,,SAINT PAUL,MN,55110,,a
CHARMAINE,INNOCENT,5880 NW 12TH ST,APT G,SUNRISE,FL,33313,,a
BRUCE,LIVINGSTON,PO BOX 1028,,OXFORD,NY,13830,,a
LAURIE,DELIGNE,32 RICHARDS AVE,,ONEONTA,NY,13820,,a
YESENIA,LOPEZ ROJO,9315 WISTERIA ST,,BLOOMINGTON,CA,92316,,a
COLLEEN,KEIRNS,2469 OGDEN AVE,,AKRON,OH,44312,,a
KAREN,BROWN,29138 GABILAN ST,,BARSTOW,CA,92311,,a
RACHAEL,NARVESON,19830 FOREST RD N,APT 202,FOREST LAKE,MN,55025,,a
DONALD,DIXON,7824 OLD ORCHARD CT,,MANLIUS,NY,13104,,a
BRANDY,GOODFELLOW,1529 TOWER RD,,CORTLAND,NY,13045,6077530076,a
MARY,BISCHEL,11500 227TH AVE,,BLOOMER,WI,54724,,a
TAMMY,PACHECO,1064 SCRANTON ST,,AURORA,CO,80011,3035374749,a
SCOTT,ERMO,12 GOLDFINCH DR,,SALT POINT,NY,12578,8452665201,a
CAROL,SMITH,13382 W 67TH DR,,ARVADA,CO,80004,,a
SUSANA,STARR,3 VICTORIA DR,,NEWBURGH,NY,12550,,a
DARRELL,JESBERGER,143 CARRIAGE RD,,CHICOPEE,MA,1013,,a
MIKE,BRODEUR,298 NE 45TH ST,,POMPANO BEACH,FL,33064,,a
MARIA,JESUS DAVILA-DA,PO BOX 2510,,TRUJILLO ALTO,PR,977,,a
C,MCMAHAN,PO BOX 447,,WAUSAU,WI,54402,,a
JIM,YANG,5200 COUNTY ROAD K,,WAUSAU,WI,54401,7152981987,a
JEFFREY,FROS,52 NASH RD,,DELANSON,NY,12053,,a
DARWIN,REYES,89 TWINLAWNS AVE,APT 1A,HICKSVILLE,NY,11801,5169353641,a
COLE,OSTHUS,PO BOX 1033,,IMPERIAL,NE,69033,,a
MICHAEL,GLINKA,111 RIVER SIDE DR,,MAUMEE,OH,43537,,a
LEIANNE,RABSTEJNEK,327 S LENOX AVE,,EAST PATCHOGUE,NY,11772,6312865588,a
HEATHER,PFAFF,1907 CONNECTICUT BLVD,,HOLLAND,OH,43528,,a
KELLY,SMITH,1410 N OCEAN AVE,,MEDFORD,NY,11763,,a
CHRISTINA,CULOTTA,5031 HUNTCLUB CHASE,,SUFFOLK,VA,23435,7574832437,a
BILL,MORRISON,3204 HORNSEA RD,,CHESAPEAKE,VA,23325,,a
INGRID,LIRIANO-BATISTA,2648 DORENA DR,,ORLANDO,FL,32839,,a
BARBARA,KIBLER,1000 COGLIANDRO DR,,CHESAPEAKE,VA,23320,,a
ROBERT,ZIENTEK,1802 WOODRUFF LN,,SWEETWATER,TX,79556,,a
MOISES,POLANCO,61 WILSON ST,,BRENTWOOD,NY,11717,,a
LAKISHA,JOHNSON,18 MONTGOMERY ST,,BRENTWOOD,NY,11717,,a
KENNETH,ERDMAN,850 BROADWAY ST,,PRAIRIE DU SAC,WI,53578,,a
JOSE,ESTRADA,5025 FALMOUTH DR,,ORLANDO,FL,32812,,a
KEA,WILSON,3223 5TH AVE,,RICHMOND,VA,23222,8045628816,a
DENISE,MINOR,30306 ORR RD,,CIRCLEVILLE,OH,43113,,a
JACOB,JORDAN,27 OAK FOREST LN,,LOUISA,VA,23093,,a
DIANA,DUNLOP,1679 BROOKS LN,,OVIEDO,FL,32765,,a
ANN,KISHLICKY,6394 T C WALKER RD,,GLOUCESTER,VA,23061,,a
MARY,MITCHELL,16487 BULLFIELD RD,,DOSWELL,VA,23047,,a
TINA,ROEHR,1538 W RAMSEY AVE,,MILWAUKEE,WI,53221,,a
MICHELLE,SMALLS,4814 N 34TH AVE,,OMAHA,NE,68111,,a
NELSON,ROMAN,289 RINGWOOD DR,,WINTER SPRINGS,FL,32708,,a
NILUFER,RAZAKI,8033 249TH ST,,BELLEROSE,NY,11426,7183470588,a
JUAN,NEGRON RESTO,PO BOX 1687,,CANOVANAS,PR,729,,a
GREGORY,HOWE,167 SAVANNAH PARK LOOP,,CASSELBERRY,FL,32707,,a
DEOKIE,GUROODAT,10729 110TH ST,,SOUTH RICHMOND HILL,NY,11419,7188353657,a
HAIHUA,LIAO,8304 133RD AVE,,OZONE PARK,NY,11417,7183221096,a
DARIO,ESPINOSA,7418 95TH AVE,,OZONE PARK,NY,11416,3476445816,a
LANA,JONES,6215 NW 160TH ST,,ALACHUA,FL,32615,,a
PATRICIA,MCFADDEN,525 PAWTUCKET BLVD,UNIT 206,LOWELL,MA,1854,,a
MICHAEL,DETHOMAS,5042 OUACHITA DR,,LAKE WORTH,FL,33467,5617278522,a
TODD,PATTERSON,11 MEMORIAL DR,APT 2A,RUTLAND,MA,1543,,a
GRACE,ESTELL,137 MONSON RD,,EDMESTON,NY,13335,,a
ALICE,POND,110 BERGER AVE,,SYRACUSE,NY,13205,,a
JOHN,FISHER,62155 POOLS BLUFF RD,,BOGALUSA,LA,70427,,a
LUISA,RODRIGUEZ,17021 N BAY RD,APT 207,SUNNY ISLES BEACH,FL,33160,3059474352,a
SINH,PHAN,PO BOX 26996,,SAN DIEGO,CA,92196,,a
MARIA,MEDRANO,2972 DOUG FORD DR,,EL PASO,TX,79935,,a
MAGGY,KALIL,584 CAREY WAY,,ORLANDO,FL,32825,4072733559,a
MARTHA,WEERTS,404 N 5TH ST,APT 1,BEATRICE,NE,68310,,a
GERALD,KANNER,7278 SHANNONDALE RD,,MECHANICSVILLE,VA,23116,,a
DANIEL,TYLER,603 TIMBERWOLF TRL,,APOPKA,FL,32712,,a
EDWARD W,PLETCHER,16615 NE 88TH ST,,VANCOUVER,WA,98682,3608968728,a
GASPARD,DELINCE,2204 SCHENECTADY AVE,,BROOKLYN,NY,11234,3476738326,a
JEFFERY,WOODHEAD,2509 BEDFORD AVE,,RALEIGH,NC,27607,,a
EMILY,HAUSTERMAN,1655 BEECHSHIRE DR,,CINCINNATI,OH,45255,,a
BERNARD,BZDOK,1300 W MEDICINE LAKE DR,APT 316,MINNEAPOLIS,MN,55441,,a
STEPHANIE,DOUGLAS,7640 LIBERTY ST,,SHREVEPORT,LA,71106,,a
IVIDIO,MARTINEZ,PO BOX 353,,CORONA DEL MAR,CA,92625,,a
NELSON,DAVILA-DAVILA,6418 LEE AVE N,,MINNEAPOLIS,MN,55429,,a
JUSTIN,MOYER,106 REMOUNT RD,,GOLDSBORO,NC,27534,,a
THINH,CAO,1209 LAKE SHORE RANCH DR,,SEFFNER,FL,33584,,a
MATTHEW,GARNER,140 BPW CLUB RD,APT B18,CARRBORO,NC,27510,9199324894,a
MARCOS,TAMAYO,81 CANADA ST,,LOWELL,MA,1852,,a
DARRELL,VICKERS,638 PRESERVATION TRL,UNIT E,WEBSTER,NY,14580,,a
DAVID,PETERS,5002 STATE ROUTE 222,,BATAVIA,OH,45103,,a
IRMA,VALLE,24323 JACKSON AVE,APT 1629,MURRIETA,CA,92562,,a
MICHELLE,CARRIERE,17 VILLAGE GREEN DR,,NORTH ANDOVER,MA,1845,,a
MICHAEL,MACOMBER,330 SE 4TH AVE,,DELRAY BEACH,FL,33483,5612720505,a
CORY,DISANTO,7368 STATE ROUTE 31,,LYONS,NY,14489,,a
JOSH,GUY,250 WOODSONG DR,,STOKESDALE,NC,27357,3369494196,a
TIMOTHY,CROWELL,1 HIDDEN VALLEY DR,,BURLINGTON,MA,1803,,a
KAREN,SIRKIN,10 WILDWOOD RD,,WAYLAND,MA,1778,,a
JEREMY,WICKLUND,8955 COUNTY ROAD 23 SE,,BECKER,MN,55308,7632612264,a
PAMELA,EKMARK,1210 VALLEY VIEW DR NW,,NORTH CANTON,OH,44720,3304974260,a
LEE,LEGER,128 VANESSA AVE,,LAKE CHARLES,LA,70605,,a
LAURA,LARSON,8893 SPRINGWOOD DR,,SAINT PAUL,MN,55125,,a
PAUL,DAVIS,7165 FRANKLIN RD,,LEWISVILLE,NC,27023,,a
CAROLYN,JARRELL,911 TENSAS DR,,OPELOUSAS,LA,70570,,a
WILLIAM,LACROIX,1920 SABAL PALM DR,APT 201,DAVIE,FL,33324,9544748336,a
ROSARIO,ROBINSON,6990 OLIVE ST,,HIGHLAND,CA,92346,,2
ALEXANDRA,MARRERO,1664 SW 44TH AVE,,FORT LAUDERDALE,FL,33317,,2
MAXALEE,MORRIS,301 MORRIS DR,,EAST PALESTINE,OH,44413,3304263067,2
JUDY,GRADY,PO BOX 521,,MILLBURY,MA,1527,,2
MARGARITA,EASON,1187 MARINA DR,,SLIDELL,LA,70458,,2
RONALD,LABEFF,575 WILD ROSE LN,,IMPERIAL,CA,92251,,2
BAGRAT,GARAMOR,6159 S POTOMAC WAY,,CENTENNIAL,CO,80111,,2
RICHARD,SHEA,30119 AMY CIR,,CATHEDRAL CITY,CA,92234,7607703002,2
JERELD,RAMOS,13008 TERRACE SPRINGS DR,,TAMPA,FL,33637,8138660849,2
JUDITH,MILLER,4 FLAMINGO DR,,MORAVIA,NY,13118,,2
JUSTIN,WATTS,204 SHORT PL,,LOUISVILLE,CO,80027,,2
DONALD,CRISWELL,10364 ARAPAHOE RD,,LAFAYETTE,CO,80026,3036665758,2
LATOYA,REED,4026 BLUEFISH DR SE,,SAINT PETERSBURG,FL,33705,7278239252,2
ALEKA,FISCHER,1065 E MIDWAY BLVD,,BROOMFIELD,CO,80020,,2
JOYCE,WITT,5763 DICKERSON MILL RD,,BEDFORD,VA,24523,,2
DONALD,COLES,1433 OLD GOFFS RD,,BEDFORD,VA,24523,,2
GALLOWAY,KORINA,15221 W US HIGHWAY 63,LOT 3,HAYWARD,WI,54843,,2
ASHLEY,GRANT,31 ACORN LN,,RAPHINE,VA,24472,,2
ALEXANDER,STEWART,6333 COLLEGE GROVE WAY,UNIT 7110,SAN DIEGO,CA,92115,,2
JAY,GILE,N6396 COUNTY ROAD DE,,BANGOR,WI,54614,,2
VIVIAN,SISON,117 SHADY OAK RD,,SAN DIEGO,CA,92114,,2
LLOYD,JONES,71 SOUTH AVE,APT 117,BEACON,NY,12508,,2
LIZA,KNOX,160 ELMENDORF ST,,KINGSTON,NY,12401,8453831389,2
VIRGINIA,SEALEY,181 E PALMER AVE,,SCHENECTADY,NY,12303,,2
TIMOTHY,STEPHENS,298 CRESTVIEW DR,,ELYRIA,OH,44035,,2
